Data Science - 데이터 불러오기와 정리하기
…
17번 행을 변수명으로 사용할 경우 많은 문제점이 발생한다.

결측치는 공란이거나 ‘…’ 기호로 표시되어 있다.

첫 번째 워킹시트(Estimates)에는 1950~2021의 데이터가, 두 번째 워킹시트(Medium variant)에는 2022~2100년의 데이터가 수록되어 있다. 나중에 결합해야한다.

우선 엑셀 파일을 그대로 불러와 본다.

read_excel(
  "WPP2022_GEN_F01_DEMOGRAPHIC_INDICATORS_COMPACT_REV1.xlsx", 
  sheet = "Estimates" 
  )

# A tibble: 20,608 × 65
   ...1  ...2  ...3  ...4  `United Nations`  ...6  ...7  ...8  ...9  ...10 ...11
   <chr> <chr> <chr> <chr> <chr>             <chr> <chr> <chr> <chr> <chr> <chr>
 1 <NA>  <NA>  <NA>  <NA>  Population Divis… <NA>  <NA>  <NA>  <NA>  <NA>  <NA> 
 2 <NA>  <NA>  <NA>  <NA>  Department of Ec… <NA>  <NA>  <NA>  <NA>  <NA>  <NA> 
 3 <NA>  <NA>  <NA>  <NA>  <NA>              <NA>  <NA>  <NA>  <NA>  <NA>  <NA> 
 4 <NA>  <NA>  <NA>  <NA>  World Population… <NA>  <NA>  <NA>  <NA>  <NA>  <NA> 
 5 <NA>  <NA>  <NA>  <NA>  File GEN/01/REV1… <NA>  <NA>  <NA>  <NA>  <NA>  <NA> 
 6 <NA>  <NA>  <NA>  <NA>  Estimates, 1950 … <NA>  <NA>  <NA>  <NA>  <NA>  <NA> 
 7 <NA>  <NA>  <NA>  <NA>  POP/DB/WPP/Rev.2… <NA>  <NA>  <NA>  <NA>  <NA>  <NA> 
 8 <NA>  <NA>  <NA>  <NA>  © July 2022 by U… <NA>  <NA>  <NA>  <NA>  <NA>  <NA> 
 9 <NA>  <NA>  <NA>  <NA>  Suggested citati… <NA>  <NA>  <NA>  <NA>  <NA>  <NA> 
10 <NA>  <NA>  <NA>  <NA>  <NA>              <NA>  <NA>  <NA>  <NA>  <NA>  <NA> 
# ℹ 20,598 more rows
# ℹ 54 more variables: ...12 <chr>, ...13 <chr>, ...14 <chr>, ...15 <chr>,
#   ...16 <chr>, ...17 <chr>, ...18 <chr>, ...19 <chr>, ...20 <chr>,
#   ...21 <chr>, ...22 <chr>, ...23 <chr>, ...24 <chr>, ...25 <chr>,
#   ...26 <chr>, ...27 <chr>, ...28 <chr>, ...29 <chr>, ...30 <chr>,
#   ...31 <chr>, ...32 <chr>, ...33 <chr>, ...34 <chr>, ...35 <chr>,
#   ...36 <chr>, ...37 <chr>, ...38 <chr>, ...39 <chr>, ...40 <chr>, …
…
wpp_2022 <- wpp_2022 |>    
  filter(type != "Label/Separator")

이제 모든 과정이 끝났다. 나중에 사용하기 위해, writexl 패키지의 write_xlsx() 함수를 이용하여 엑셀 파일로 저장해 본다.

library(writexl)
write_xlsx(wpp_2022, "wpp_2022.xlsx")

그런데, 저장된 파일을 read_excel() 함수로 다시 불러 들이면 컬럼 형식에 대한 정보가 사라져 버리는 등의 에러가 발생한다. 이런 점 때문에 다음과 같은 대안이 존재한다. readr 패키지의 write_rds() 함수로 저장하고, 다시 read_rds() 함수로 불러들이면 정확히 동일한 것을 얻을 수 있다.

write_rds(wpp_2022, "wpp_2022.rds")
read_rds("wpp_2022.rds")

# A tibble: 43,186 × 65
   index variant   region_name notes location_code ISO3  ISO2   SDMX type 
   <dbl> <chr>     <chr>       <chr>         <dbl> <chr> <chr> <dbl> <chr>
 1     1 Estimates WORLD       <NA>            900 <NA>  <NA>      1 World
 2     2 Estimates WORLD       <NA>            900 <NA>  <NA>      1 World
 3     3 Estimates WORLD       <NA>            900 <NA>  <NA>      1 World
 4     4 Estimates WORLD       <NA>            900 <NA>  <NA>      1 World
 5     5 Estimates WORLD       <NA>            900 <NA>  <NA>      1 World
 6     6 Estimates WORLD       <NA>            900 <NA>  <NA>      1 World
 7     7 Estimates WORLD       <NA>            900 <NA>  <NA>      1 World
 8     8 Estimates WORLD       <NA>            900 <NA>  <NA>      1 World
 9     9 Estimates WORLD       <NA>            900 <NA>  <NA>      1 World
10    10 Estimates WORLD       <NA>            900 <NA>  <NA>      1 World
# ℹ 43,176 more rows
# ℹ 56 more variables: parent_code <dbl>, year <dbl>, pop_jan_total <dbl>,
#   pop_jul_total <dbl>, pop_jul_male <dbl>, pop_jul_female <dbl>,
#   pop_den <dbl>, sex_ratio <dbl>, median_age <dbl>, natural_change <dbl>,
#   RNC <dbl>, pop_change <dbl>, PGR <dbl>, dubling_time <dbl>, births <dbl>,
#   births_by_f1519 <dbl>, CBR <dbl>, TFR <dbl>, NRR <dbl>,
#   mean_age_childbearing <dbl>, sex_ratio_birth <dbl>, deaths_total <dbl>, …
…
country와 year은 분명한 변수이지만 나머지 56개 변수는 무엇인지 알 수 없다. 그런데 잘 살펴보면, 변수명에 어떤 패턴이 있다는 것을 알 수 있다. 모두 세 부분으로 나뉘어져 있는데, 첫 번째 부분은 진단법(sp, rel, ep)과 관련되어 있고, 두 번째 부분은 성(m, f)과 관련되어 있고, 세 번째 부분은 연령(014, 1524, 2534, 3544, 4554, 5564, 65)과 관련되어 있다. 56개 변수의 셀 값은 모두 케이스(환자수)를 의미한다. 이 지저분한 데이터를 pivot_longer() 함수를 이용해 정돈된 데이터로 만들어 본다.

who2 |> 
  pivot_longer(
    cols = !c(country, year),
    names_to = c("diagnosis", "gender", "age"), 
    names_sep = "_",
    values_to = "count"
  )

# A tibble: 405,440 × 6
   country      year diagnosis gender age   count
   <chr>       <dbl> <chr>     <chr>  <chr> <dbl>
 1 Afghanistan  1980 sp        m      014      NA
 2 Afghanistan  1980 sp        m      1524     NA
 3 Afghanistan  1980 sp        m      2534     NA
 4 Afghanistan  1980 sp        m      3544     NA
 5 Afghanistan  1980 sp        m      4554     NA
 6 Afghanistan  1980 sp        m      5564     NA
 7 Afghanistan  1980 sp        m      65       NA
 8 Afghanistan  1980 sp        f      014      NA
 9 Afghanistan  1980 sp        f      1524     NA
10 Afghanistan  1980 sp        f      2534     NA
# ℹ 405,430 more rows

조교의 도움을 받아 각 아규먼트가 어떤 역할을 하는지 이해한다. 그리고 정돈된 데이터를 만들기 위해 왜 데이터 ’늘이기’를 해야하는지 생각해 본라.

3.2 데이터 넓히기

실습을 위해 tidyverse 패키지에 포함되어 있는 cms_patient_experience 데이터를 사용한다. 이것은 미국의 Centers of Medicare and Meicaid Services가 제공한 데이터이다.

cms_patient_experience

# A tibble: 500 × 5
   org_pac_id org_nm                           measure_cd measure_title prf_rate
   <chr>      <chr>                            <chr>      <chr>            <dbl>
 1 0446157747 USC CARE MEDICAL GROUP INC       CAHPS_GRP… CAHPS for MI…       63
 2 0446157747 USC CARE MEDICAL GROUP INC       CAHPS_GRP… CAHPS for MI…       87
 3 0446157747 USC CARE MEDICAL GROUP INC       CAHPS_GRP… CAHPS for MI…       86
 4 0446157747 USC CARE MEDICAL GROUP INC       CAHPS_GRP… CAHPS for MI…       57
 5 0446157747 USC CARE MEDICAL GROUP INC       CAHPS_GRP… CAHPS for MI…       85
 6 0446157747 USC CARE MEDICAL GROUP INC       CAHPS_GRP… CAHPS for MI…       24
 7 0446162697 ASSOCIATION OF UNIVERSITY PHYSI… CAHPS_GRP… CAHPS for MI…       59
 8 0446162697 ASSOCIATION OF UNIVERSITY PHYSI… CAHPS_GRP… CAHPS for MI…       85
 9 0446162697 ASSOCIATION OF UNIVERSITY PHYSI… CAHPS_GRP… CAHPS for MI…       83
10 0446162697 ASSOCIATION OF UNIVERSITY PHYSI… CAHPS_GRP… CAHPS for MI…       63
# ℹ 490 more rows
…
의료조직별로 6개씩의 열을 차지하고 있는데, 6개의 열은 measure_cd와 measure_title에 나타나 있는 것과 같은 6개의 서로 다른 조사 항목을 나타낸다.

마지막의 prf_rate는 조사 항목별 점수이다.

pivot_wider() 함수를 이용하여, 행에는 개별 의료조직이, 열에는 개별 조사 항목이 나타나는 정돈된 데이터를 만들어 본다.

cms_patient_experience |> 
  pivot_wider(
    id_cols = starts_with("org"),
    names_from = measure_cd,
    values_from = prf_rate
  )

# A tibble: 95 × 8
   org_pac_id org_nm CAHPS_GRP_1 CAHPS_GRP_2 CAHPS_GRP_3 CAHPS_GRP_5 CAHPS_GRP_8
   <chr>      <chr>        <dbl>       <dbl>       <dbl>       <dbl>       <dbl>
 1 0446157747 USC C…          63          87          86          57          85
 2 0446162697 ASSOC…          59          85          83          63          88
 3 0547164295 BEAVE…          49          NA          75          44          73
 4 0749333730 CAPE …          67          84          85          65          82
 5 0840104360 ALLIA…          66          87          87          64          87
 6 0840109864 REX H…          73          87          84          67          91
 7 0840513552 SCL H…          58          83          76          58          78
 8 0941545784 GRITM…          46          86          81          54          NA
 9 1052612785 COMMU…          65          84          80          58          87
10 1254237779 OUR L…          61          NA          NA          65          NA
# ℹ 85 more rows
# ℹ 1 more variable: CAHPS_GRP_12 <dbl>
…
Figure 1: nycflights13 데이터(https://github.com/tidyverse/nycflights13)

flights 데이터의 변수가 너무 많기 때문에 조인을 위한 공통키를 중심으로 변수를 줄인다.

library(nycflights13)

flights2 <- flights |> 
  select(year, time_hour, origin, dest, tailnum, carrier)
flights2

# A tibble: 336,776 × 6
    year time_hour           origin dest  tailnum carrier
   <int> <dttm>              <chr>  <chr> <chr>   <chr>  
 1  2013 2013-01-01 05:00:00 EWR    IAH   N14228  UA     
 2  2013 2013-01-01 05:00:00 LGA    IAH   N24211  UA     
 3  2013 2013-01-01 05:00:00 JFK    MIA   N619AA  AA     
 4  2013 2013-01-01 05:00:00 JFK    BQN   N804JB  B6     
 5  2013 2013-01-01 06:00:00 LGA    ATL   N668DN  DL     
 6  2013 2013-01-01 05:00:00 EWR    ORD   N39463  UA     
 7  2013 2013-01-01 06:00:00 EWR    FLL   N516JB  B6     
 8  2013 2013-01-01 06:00:00 LGA    IAD   N829AS  EV     
 9  2013 2013-01-01 06:00:00 JFK    MCO   N593JB  B6     
10  2013 2013-01-01 06:00:00 LGA    ORD   N3ALAA  AA     
# ℹ 336,766 more rows
…
flights2 |>
  left_join(airlines)

# A tibble: 336,776 × 7
    year time_hour           origin dest  tailnum carrier name                  
   <int> <dttm>              <chr>  <chr> <chr>   <chr>   <chr>                 
 1  2013 2013-01-01 05:00:00 EWR    IAH   N14228  UA      United Air Lines Inc. 
 2  2013 2013-01-01 05:00:00 LGA    IAH   N24211  UA      United Air Lines Inc. 
 3  2013 2013-01-01 05:00:00 JFK    MIA   N619AA  AA      American Airlines Inc.
 4  2013 2013-01-01 05:00:00 JFK    BQN   N804JB  B6      JetBlue Airways       
 5  2013 2013-01-01 06:00:00 LGA    ATL   N668DN  DL      Delta Air Lines Inc.  
 6  2013 2013-01-01 05:00:00 EWR    ORD   N39463  UA      United Air Lines Inc. 
 7  2013 2013-01-01 06:00:00 EWR    FLL   N516JB  B6      JetBlue Airways       
 8  2013 2013-01-01 06:00:00 LGA    IAD   N829AS  EV      ExpressJet Airlines I…
 9  2013 2013-01-01 06:00:00 JFK    MCO   N593JB  B6      JetBlue Airways       
10  2013 2013-01-01 06:00:00 LGA    ORD   N3ALAA  AA      American Airlines Inc.
# ℹ 336,766 more rows

weather

# A tibble: 26,115 × 15
   origin  year month   day  hour  temp  dewp humid wind_dir wind_speed
   <chr>  <int> <int> <int> <int> <dbl> <dbl> <dbl>    <dbl>      <dbl>
 1 EWR     2013     1     1     1  39.0  26.1  59.4      270      10.4 
 2 EWR     2013     1     1     2  39.0  27.0  61.6      250       8.06
 3 EWR     2013     1     1     3  39.0  28.0  64.4      240      11.5 
 4 EWR     2013     1     1     4  39.9  28.0  62.2      250      12.7 
 5 EWR     2013     1     1     5  39.0  28.0  64.4      260      12.7 
 6 EWR     2013     1     1     6  37.9  28.0  67.2      240      11.5 
 7 EWR     2013     1     1     7  39.0  28.0  64.4      240      15.0 
 8 EWR     2013     1     1     8  39.9  28.0  62.2      250      10.4 
 9 EWR     2013     1     1     9  39.9  28.0  62.2      260      15.0 
10 EWR     2013     1     1    10  41    28.0  59.6      260      13.8 
# ℹ 26,105 more rows
# ℹ 5 more variables: wind_gust <dbl>, precip <dbl>, pressure <dbl>,
#   visib <dbl>, time_hour <dttm>

flights2 |> 
  left_join(weather |> select(origin, time_hour, temp, wind_speed))

# A tibble: 336,776 × 8
    year time_hour           origin dest  tailnum carrier  temp wind_speed
   <int> <dttm>              <chr>  <chr> <chr>   <chr>   <dbl>      <dbl>
 1  2013 2013-01-01 05:00:00 EWR    IAH   N14228  UA       39.0       12.7
 2  2013 2013-01-01 05:00:00 LGA    IAH   N24211  UA       39.9       15.0
 3  2013 2013-01-01 05:00:00 JFK    MIA   N619AA  AA       39.0       15.0
 4  2013 2013-01-01 05:00:00 JFK    BQN   N804JB  B6       39.0       15.0
 5  2013 2013-01-01 06:00:00 LGA    ATL   N668DN  DL       39.9       16.1
 6  2013 2013-01-01 05:00:00 EWR    ORD   N39463  UA       39.0       12.7
 7  2013 2013-01-01 06:00:00 EWR    FLL   N516JB  B6       37.9       11.5
 8  2013 2013-01-01 06:00:00 LGA    IAD   N829AS  EV       39.9       16.1
 9  2013 2013-01-01 06:00:00 JFK    MCO   N593JB  B6       37.9       13.8
10  2013 2013-01-01 06:00:00 LGA    ORD   N3ALAA  AA       39.9       16.1
# ℹ 336,766 more rows

planes

# A tibble: 3,322 × 9
   tailnum  year type              manufacturer model engines seats speed engine
   <chr>   <int> <chr>             <chr>        <chr>   <int> <int> <int> <chr> 
 1 N10156   2004 Fixed wing multi… EMBRAER      EMB-…       2    55    NA Turbo…
 2 N102UW   1998 Fixed wing multi… AIRBUS INDU… A320…       2   182    NA Turbo…
 3 N103US   1999 Fixed wing multi… AIRBUS INDU… A320…       2   182    NA Turbo…
 4 N104UW   1999 Fixed wing multi… AIRBUS INDU… A320…       2   182    NA Turbo…
 5 N10575   2002 Fixed wing multi… EMBRAER      EMB-…       2    55    NA Turbo…
 6 N105UW   1999 Fixed wing multi… AIRBUS INDU… A320…       2   182    NA Turbo…
 7 N107US   1999 Fixed wing multi… AIRBUS INDU… A320…       2   182    NA Turbo…
 8 N108UW   1999 Fixed wing multi… AIRBUS INDU… A320…       2   182    NA Turbo…
 9 N109UW   1999 Fixed wing multi… AIRBUS INDU… A320…       2   182    NA Turbo…
10 N110UW   1999 Fixed wing multi… AIRBUS INDU… A320…       2   182    NA Turbo…
# ℹ 3,312 more rows

flights2 |> 
  left_join(planes |> select(tailnum, type, engines, seats))

# A tibble: 336,776 × 9
    year time_hour           origin dest  tailnum carrier type     engines seats
   <int> <dttm>              <chr>  <chr> <chr>   <chr>   <chr>      <int> <int>
 1  2013 2013-01-01 05:00:00 EWR    IAH   N14228  UA      Fixed w…       2   149
 2  2013 2013-01-01 05:00:00 LGA    IAH   N24211  UA      Fixed w…       2   149
 3  2013 2013-01-01 05:00:00 JFK    MIA   N619AA  AA      Fixed w…       2   178
 4  2013 2013-01-01 05:00:00 JFK    BQN   N804JB  B6      Fixed w…       2   200
 5  2013 2013-01-01 06:00:00 LGA    ATL   N668DN  DL      Fixed w…       2   178
 6  2013 2013-01-01 05:00:00 EWR    ORD   N39463  UA      Fixed w…       2   191
 7  2013 2013-01-01 06:00:00 EWR    FLL   N516JB  B6      Fixed w…       2   200
 8  2013 2013-01-01 06:00:00 LGA    IAD   N829AS  EV      Fixed w…       2    55
 9  2013 2013-01-01 06:00:00 JFK    MCO   N593JB  B6      Fixed w…       2   200
10  2013 2013-01-01 06:00:00 LGA    ORD   N3ALAA  AA      <NA>          NA    NA
# ℹ 336,766 more rows

airports

# A tibble: 1,458 × 8
   faa   name                             lat    lon   alt    tz dst   tzone    
   <chr> <chr>                          <dbl>  <dbl> <dbl> <dbl> <chr> <chr>    
 1 04G   Lansdowne Airport               41.1  -80.6  1044    -5 A     America/…
 2 06A   Moton Field Municipal Airport   32.5  -85.7   264    -6 A     America/…
 3 06C   Schaumburg Regional             42.0  -88.1   801    -6 A     America/…
 4 06N   Randall Airport                 41.4  -74.4   523    -5 A     America/…
 5 09J   Jekyll Island Airport           31.1  -81.4    11    -5 A     America/…
 6 0A9   Elizabethton Municipal Airport  36.4  -82.2  1593    -5 A     America/…
 7 0G6   Williams County Airport         41.5  -84.5   730    -5 A     America/…
 8 0G7   Finger Lakes Regional Airport   42.9  -76.8   492    -5 A     America/…
 9 0P2   Shoestring Aviation Airfield    39.8  -76.6  1000    -5 U     America/…
10 0S9   Jefferson County Intl           48.1 -123.    108    -8 A     America/…
# ℹ 1,448 more rows

flights2 |> 
  left_join(airports, join_by(origin == faa))

# A tibble: 336,776 × 13
    year time_hour           origin dest  tailnum carrier name         lat   lon
   <int> <dttm>              <chr>  <chr> <chr>   <chr>   <chr>      <dbl> <dbl>
 1  2013 2013-01-01 05:00:00 EWR    IAH   N14228  UA      Newark Li…  40.7 -74.2
 2  2013 2013-01-01 05:00:00 LGA    IAH   N24211  UA      La Guardia  40.8 -73.9
 3  2013 2013-01-01 05:00:00 JFK    MIA   N619AA  AA      John F Ke…  40.6 -73.8
 4  2013 2013-01-01 05:00:00 JFK    BQN   N804JB  B6      John F Ke…  40.6 -73.8
 5  2013 2013-01-01 06:00:00 LGA    ATL   N668DN  DL      La Guardia  40.8 -73.9
 6  2013 2013-01-01 05:00:00 EWR    ORD   N39463  UA      Newark Li…  40.7 -74.2
 7  2013 2013-01-01 06:00:00 EWR    FLL   N516JB  B6      Newark Li…  40.7 -74.2
 8  2013 2013-01-01 06:00:00 LGA    IAD   N829AS  EV      La Guardia  40.8 -73.9
 9  2013 2013-01-01 06:00:00 JFK    MCO   N593JB  B6      John F Ke…  40.6 -73.8
10  2013 2013-01-01 06:00:00 LGA    ORD   N3ALAA  AA      La Guardia  40.8 -73.9
# ℹ 336,766 more rows
# ℹ 4 more variables: alt <dbl>, tz <dbl>, dst <chr>, tzone <chr>
…
