Data Science - 데이터 수집하기
…
[1] "George Lucas"     "George Lucas"     "George Lucas"     "George Lucas"    
[5] "Irvin Kershner"   "Richard Marquand" "J. J. Abrams"    

2.5 웹스크레이핑의 실제 1: 테이블이 하나 있는 경우

위키피디어의 한 항목(List of countries and dependencies by population)에는 표 하나가 포함되어 있다. 해당 표의 데이터를 수집한다.

url <- "https://en.wikipedia.org/wiki/List_of_countries_and_dependencies_by_population"
my_table <- url |> 
  read_html() |> 
  html_element("table") |> 
  html_table()
my_table

# A tibble: 241 × 7
   ``      Location    Population `% ofworld` Date  Source (official or …¹ ``   
   <chr>   <chr>       <chr>      <chr>       <chr> <chr>                  <chr>
 1 –       World       8,104,769… 100%        5 Ma… UN projection[3]       ""   
 2 1/2 [b] China       1,409,670… 17.4%       31 D… Official estimate[5]   "[c]"
 3 1/2 [b] India       1,400,744… 17.3%       1 Ma… Official projection[6] "[d]"
 4 3       United Sta… 335,893,2… 4.1%        1 Ja… Official estimate[7]   "[e]"
 5 4       Indonesia   279,118,8… 3.4%        1 Ju… National annual proje… ""   
 6 5       Pakistan    241,499,4… 3.0%        1 Ma… 2023 census result[9]  "[f]"
 7 6       Nigeria     223,800,0… 2.8%        1 Ju… Official projection[1… ""   
 8 7       Brazil      203,080,7… 2.5%        1 Au… 2022 census result[11] ""   
 9 8       Bangladesh  169,828,9… 2.1%        14 J… 2022 census result[12] ""   
10 9       Russia      146,150,7… 1.8%        1 Ja… Official estimate[13]  "[g]"
# ℹ 231 more rows
# ℹ abbreviated name: ¹​`Source (official or fromthe United Nations)`
…
    population = "Population",
    pop_pct = "% ofworld",
    date = "Date",
    source = "Source (official or fromthe United Nations)"
  ) |> 
  mutate(
    population = str_remove_all(population, ","),
    population = as.numeric(population),
    pop_pct = str_remove(pop_pct, "%"),
    pop_pct = as.numeric(pop_pct),
    date = dmy(date)
  )
my_table

# A tibble: 241 × 5
   location      population pop_pct date       source                       
   <chr>              <dbl>   <dbl> <date>     <chr>                        
 1 World         8104769000   100   2024-05-05 UN projection[3]             
 2 China         1409670000    17.4 2023-12-31 Official estimate[5]         
 3 India         1400744000    17.3 2024-03-01 Official projection[6]       
 4 United States  335893238     4.1 2024-01-01 Official estimate[7]         
 5 Indonesia      279118866     3.4 2023-07-01 National annual projection[8]
 6 Pakistan       241499431     3   2023-03-01 2023 census result[9]        
 7 Nigeria        223800000     2.8 2023-07-01 Official projection[10]      
 8 Brazil         203080756     2.5 2022-08-01 2022 census result[11]       
 9 Bangladesh     169828911     2.1 2022-06-14 2022 census result[12]       
10 Russia         146150789     1.8 2024-01-01 Official estimate[13]        
# ℹ 231 more rows

2.6 웹스크레이핑의 실제 2: 테이블이 둘 이상인 경우

위키피디어의 한 항목(List of FIPS country codes)에는 동일한 내용에 대해 여러 개의 표가 나타나 있다. 개별 표의 데이터를 수집한 후 결합하여 단일한 데이터 프레임을 구성한다.

url <- "https://en.wikipedia.org/wiki/List_of_FIPS_country_codes"
my_tables <- url |> 
  read_html() |> 
  html_elements("table") |> 
  html_table() |> 
  bind_rows()
my_tables

# A tibble: 283 × 10
   Code    `Short-form name` .mw-parser-output .n…¹ .mw-parser-output .n…² ...3 
   <chr>   <chr>             <chr>                  <chr>                  <chr>
 1 .mw-pa… Aruba             <NA>                   <NA>                   <NA> 
 2 AC      Antigua and Barb… <NA>                   <NA>                   <NA> 
 3 AE      United Arab Emir… <NA>                   <NA>                   <NA> 
 4 AF      Afghanistan       <NA>                   <NA>                   <NA> 
 5 AG      Algeria           <NA>                   <NA>                   <NA> 
 6 AJ      Azerbaijan        <NA>                   <NA>                   <NA> 
 7 AL      Albania           <NA>                   <NA>                   <NA> 
 8 AM      Armenia           <NA>                   <NA>                   <NA> 
 9 AN      Andorra           <NA>                   <NA>                   <NA> 
10 AO      Angola            <NA>                   <NA>                   <NA> 
# ℹ 273 more rows
# ℹ abbreviated names:
#   ¹​`.mw-parser-output .navbar{display:inline;font-size:88%;font-weight:normal}.mw-parser-output .navbar-collapse{float:left;text-align:left}.mw-parser-output .navbar-boxtext{word-spacing:0}.mw-parser-output .navbar ul{display:inline-block;white-space:nowrap;line-height:inherit}.mw-parser-output .navbar-brackets::before{margin-right:-0.125em;content:"[ "}.mw-parser-output .navbar-brackets::after{margin-left:-0.125em;content:" ]"}.mw-parser-output .navbar li{word-spacing:-0.125em}.mw-parser-output .navbar a>span,.mw-parser-output .navbar a>abbr{text-decoration:inherit}.mw-parser-output .navbar-mini abbr{font-variant:small-caps;border-bottom:none;text-decoration:none;cursor:inherit}.mw-parser-output .navbar-ct-full{font-size:114%;margin:0 7em}.mw-parser-output .navbar-ct-mini{font-size:114%;margin:0 4em}vteGeocode systems...1`,
#   ²​`.mw-parser-output .navbar{display:inline;font-size:88%;font-weight:normal}.mw-parser-output .navbar-collapse{float:left;text-align:left}.mw-parser-output .navbar-boxtext{word-spacing:0}.mw-parser-output .navbar ul{display:inline-block;white-space:nowrap;line-height:inherit}.mw-parser-output .navbar-brackets::before{margin-right:-0.125em;content:"[ "}.mw-parser-output .navbar-brackets::after{margin-left:-0.125em;content:" ]"}.mw-parser-output .navbar li{word-spacing:-0.125em}.mw-parser-output .navbar a>span,.mw-parser-output .navbar a>abbr{text-decoration:inherit}.mw-parser-output .navbar-mini abbr{font-variant:small-caps;border-bottom:none;text-decoration:none;cursor:inherit}.mw-parser-output .navbar-ct-full{font-size:114%;margin:0 7em}.mw-parser-output .navbar-ct-mini{font-size:114%;margin:0 4em}vteGeocode systems...2`
# ℹ 5 more variables: ...4 <chr>, ...5 <chr>, ...6 <chr>, X1 <chr>, X2 <chr>

my_tables <- my_tables |> 
  select(1, 2) |> 
  rename(
    code = "Code", 
    short_name = "Short-form name"
  ) |> 
  mutate(
    code = str_extract(code, "[A-Z][A-Z]")
  )
my_tables

# A tibble: 283 × 2
   code  short_name          
   <chr> <chr>               
 1 AA    Aruba               
 2 AC    Antigua and Barbuda 
 3 AE    United Arab Emirates
 4 AF    Afghanistan         
 5 AG    Algeria             
 6 AJ    Azerbaijan          
 7 AL    Albania             
 8 AM    Armenia             
 9 AN    Andorra             
10 AO    Angola              
# ℹ 273 more rows
…
