Data Science - R과 데이터사이언스: 개요
…
library(tidyverse)

2 시각화하기

2.1 데이터 살펴보기

이 실습을 위해 남극 파머군도(Palmer Archipelago)에 서식하는 펭귄 성체의 신체 계측 데이터를 사용한다. 이 데이터는 palmerpenguins라는 패키지에 포함되어 있으므로 해당 패키지를 불러온다.

library(palmerpenguins)

이제 이 페키지에 포함되어 있는 penguins라는 이름의 데이터를 불러온다.

penguins

# A tibble: 344 × 8
   species island    bill_length_mm bill_depth_mm flipper_length_mm body_mass_g
   <fct>   <fct>              <dbl>         <dbl>             <int>       <int>
 1 Adelie  Torgersen           39.1          18.7               181        3750
 2 Adelie  Torgersen           39.5          17.4               186        3800
 3 Adelie  Torgersen           40.3          18                 195        3250
 4 Adelie  Torgersen           NA            NA                  NA          NA
 5 Adelie  Torgersen           36.7          19.3               193        3450
 6 Adelie  Torgersen           39.3          20.6               190        3650
 7 Adelie  Torgersen           38.9          17.8               181        3625
 8 Adelie  Torgersen           39.2          19.6               195        4675
 9 Adelie  Torgersen           34.1          18.1               193        3475
10 Adelie  Torgersen           42            20.2               190        4250
# ℹ 334 more rows
# ℹ 2 more variables: sex <fct>, year <int>
…
3.2 주요 함수

여기서는 가장 널리 사용되는 6개 함수에 대해서만 개략적으로 다룬다. 그 6개 함수는 select(), filter(), arrange(), mutate(), group_by(), summerize()이다. 조교의 도움을 받아 각 함수가 무슨 일을 한 것인지 이해한다.

3.2.1 select() 함수

열(변수) 중 일부를 솎아낸다. 즉, 변수의 갯수를 줄인다.

select(flights, year, month, day)

# A tibble: 336,776 × 3
    year month   day
   <int> <int> <int>
 1  2013     1     1
 2  2013     1     1
 3  2013     1     1
 4  2013     1     1
 5  2013     1     1
 6  2013     1     1
 7  2013     1     1
 8  2013     1     1
 9  2013     1     1
10  2013     1     1
# ℹ 336,766 more rows

3.2.2 filter() 함수

특정 열(변수)에 의거해 조건을 만족하는 행을 솎아낸다. 즉 관측개체의 갯수를 줄인다.

filter(flights, month == 1 & day == 1)

# A tibble: 842 × 19
    year month   day dep_time sched_dep_time dep_delay arr_time sched_arr_time
   <int> <int> <int>    <int>          <int>     <dbl>    <int>          <int>
 1  2013     1     1      517            515         2      830            819
 2  2013     1     1      533            529         4      850            830
 3  2013     1     1      542            540         2      923            850
 4  2013     1     1      544            545        -1     1004           1022
 5  2013     1     1      554            600        -6      812            837
 6  2013     1     1      554            558        -4      740            728
 7  2013     1     1      555            600        -5      913            854
 8  2013     1     1      557            600        -3      709            723
 9  2013     1     1      557            600        -3      838            846
10  2013     1     1      558            600        -2      753            745
# ℹ 832 more rows
# ℹ 11 more variables: arr_delay <dbl>, carrier <chr>, flight <int>,
#   tailnum <chr>, origin <chr>, dest <chr>, air_time <dbl>, distance <dbl>,
#   hour <dbl>, minute <dbl>, time_hour <dttm>

3.2.3 arrange() 함수

특정 열(변수)에 의거해 행의 순서를 바꾼다.

arrange(flights, year, month, day)

# A tibble: 336,776 × 19
    year month   day dep_time sched_dep_time dep_delay arr_time sched_arr_time
   <int> <int> <int>    <int>          <int>     <dbl>    <int>          <int>
 1  2013     1     1      517            515         2      830            819
 2  2013     1     1      533            529         4      850            830
 3  2013     1     1      542            540         2      923            850
 4  2013     1     1      544            545        -1     1004           1022
 5  2013     1     1      554            600        -6      812            837
 6  2013     1     1      554            558        -4      740            728
 7  2013     1     1      555            600        -5      913            854
 8  2013     1     1      557            600        -3      709            723
 9  2013     1     1      557            600        -3      838            846
10  2013     1     1      558            600        -2      753            745
# ℹ 336,766 more rows
# ℹ 11 more variables: arr_delay <dbl>, carrier <chr>, flight <int>,
#   tailnum <chr>, origin <chr>, dest <chr>, air_time <dbl>, distance <dbl>,
#   hour <dbl>, minute <dbl>, time_hour <dttm>

3.2.4 mutate() 함수

기존의 열(변수)을 변형하여 새로운 열(변수)을 생성한다.

mutate(flights,
    gain = dep_delay - arr_delay,
    speed = distance / air_time * 60
  )

# A tibble: 336,776 × 21
    year month   day dep_time sched_dep_time dep_delay arr_time sched_arr_time
   <int> <int> <int>    <int>          <int>     <dbl>    <int>          <int>
 1  2013     1     1      517            515         2      830            819
 2  2013     1     1      533            529         4      850            830
 3  2013     1     1      542            540         2      923            850
 4  2013     1     1      544            545        -1     1004           1022
 5  2013     1     1      554            600        -6      812            837
 6  2013     1     1      554            558        -4      740            728
 7  2013     1     1      555            600        -5      913            854
 8  2013     1     1      557            600        -3      709            723
 9  2013     1     1      557            600        -3      838            846
10  2013     1     1      558            600        -2      753            745
# ℹ 336,766 more rows
# ℹ 13 more variables: arr_delay <dbl>, carrier <chr>, flight <int>,
#   tailnum <chr>, origin <chr>, dest <chr>, air_time <dbl>, distance <dbl>,
#   hour <dbl>, minute <dbl>, time_hour <dttm>, gain <dbl>, speed <dbl>

3.2.5 group_by() 함수

열(변수)(범주형 변수, categorical variables)에 의거해 전체 행을 그룹으로 분할한다.

group_by(flights, month)

# A tibble: 336,776 × 19
# Groups:   month [12]
    year month   day dep_time sched_dep_time dep_delay arr_time sched_arr_time
   <int> <int> <int>    <int>          <int>     <dbl>    <int>          <int>
 1  2013     1     1      517            515         2      830            819
 2  2013     1     1      533            529         4      850            830
 3  2013     1     1      542            540         2      923            850
 4  2013     1     1      544            545        -1     1004           1022
 5  2013     1     1      554            600        -6      812            837
 6  2013     1     1      554            558        -4      740            728
 7  2013     1     1      555            600        -5      913            854
 8  2013     1     1      557            600        -3      709            723
 9  2013     1     1      557            600        -3      838            846
10  2013     1     1      558            600        -2      753            745
# ℹ 336,766 more rows
# ℹ 11 more variables: arr_delay <dbl>, carrier <chr>, flight <int>,
#   tailnum <chr>, origin <chr>, dest <chr>, air_time <dbl>, distance <dbl>,
#   hour <dbl>, minute <dbl>, time_hour <dttm>
…
열(변수)의 통계량을 산출하여 새로운 열(변수)에 저장한다.

summarize(flights, delay = mean(dep_delay, na.rm = TRUE))

# A tibble: 1 × 1
  delay
  <dbl>
1  12.6

위의 group_by() 함수와 결합하면, 그룹별로 열(변수)의 통계량을 산출하여 새로운 열(변수)에 저장할 수 있다.

by_day <- group_by(flights, year, month, day)
summarize(by_day, delay = mean(dep_delay, na.rm = TRUE))

# A tibble: 365 × 4
# Groups:   year, month [12]
    year month   day delay
   <int> <int> <int> <dbl>
 1  2013     1     1 11.5 
 2  2013     1     2 13.9 
 3  2013     1     3 11.0 
 4  2013     1     4  8.95
 5  2013     1     5  5.73
 6  2013     1     6  7.15
 7  2013     1     7  5.42
 8  2013     1     8  2.55
 9  2013     1     9  2.28
10  2013     1    10  2.84
# ℹ 355 more rows
…
Figure 2: 파이프 연산자(https://r4ds.hadley.nz/data-transform)

단축키는 Crtl + Shift + M이다. 다른 건 몰라도 이 단축키만은 반드시 기억해야 한다.

다음의 두 코드를 비교해 보라. 먼저 파이프 연산자를 사용하지 않은 경우이다.

flights1 <- filter(flights, dest == "IAH")
flights2 <- mutate(flights1, speed = distance / air_time * 60)
flights3 <- select(flights2, year:day, dep_time, carrier, flight, speed)
arrange(flights3, desc(speed))

# A tibble: 7,198 × 7
    year month   day dep_time carrier flight speed
   <int> <int> <int>    <int> <chr>    <int> <dbl>
 1  2013     7     9      707 UA         226  522.
 2  2013     8    27     1850 UA        1128  521.
 3  2013     8    28      902 UA        1711  519.
 4  2013     8    28     2122 UA        1022  519.
 5  2013     6    11     1628 UA        1178  515.
 6  2013     8    27     1017 UA         333  515.
 7  2013     8    27     1205 UA        1421  515.
 8  2013     8    27     1758 UA         302  515.
 9  2013     9    27      521 UA         252  515.
10  2013     8    28      625 UA         559  515.
# ℹ 7,188 more rows

다음은 파이프 연산자를 사용한 경우이다. 동일한 결과를 가져다 주지만 훨신 더 간결하고 직관적이고 이해하기 쉽다. 파이프 연산자의 사용 원리는 뒤에서 자세히 배운다.

flights |> 
  filter(dest == "IAH") |> 
  mutate(speed = distance / air_time * 60) |> 
  select(year:day, dep_time, carrier, flight, speed) |> 
  arrange(desc(speed))

# A tibble: 7,198 × 7
    year month   day dep_time carrier flight speed
   <int> <int> <int>    <int> <chr>    <int> <dbl>
 1  2013     7     9      707 UA         226  522.
 2  2013     8    27     1850 UA        1128  521.
 3  2013     8    28      902 UA        1711  519.
 4  2013     8    28     2122 UA        1022  519.
 5  2013     6    11     1628 UA        1178  515.
 6  2013     8    27     1017 UA         333  515.
 7  2013     8    27     1205 UA        1421  515.
 8  2013     8    27     1758 UA         302  515.
 9  2013     9    27      521 UA         252  515.
10  2013     8    28      625 UA         559  515.
# ℹ 7,188 more rows
…
